{
  "project_info": {
    "project_number": "597524918439",
    "project_id": "foxy-cd6ff",
    "storage_bucket": "foxy-cd6ff.appspot.com"
  },
  "client": [
    {
      "client_info": {
        "mobilesdk_app_id": "1:597524918439:android:923448676e3683c5eceb82",
        "android_client_info": {
          "package_name": "com.example.fox_video"
        }
      },
      "oauth_client": [],
      "api_key": [
        {
          "current_key": "AIzaSyCRRiJDuNhqt2rVpExa-Sv_6cud9EPFtD0"
        }
      ],
      "services": {
        "appinvite_service": {
          "other_platform_oauth_client": []
        }
      }
    }
  ],
  "configuration_version": "1"
}